<?xml version="1.0" encoding="UTF-8"?>
<svg width="823px" height="781px" viewBox="0 0 823 781" version="1.1" xmlns="http://www.w3.org/2000/svg" xmlns:xlink="http://www.w3.org/1999/xlink">
    <!-- Generator: Sketch 55.2 (78181) - https://sketchapp.com -->
    <title>Group 16</title>
    <desc>Created with Sketch.</desc>
    <defs>
        <linearGradient x1="50%" y1="6.14930835%" x2="50%" y2="100%" id="linearGradient-1">
            <stop stop-color="#FFFFFF" offset="0%"></stop>
            <stop stop-color="#F4F7FB" offset="100%"></stop>
        </linearGradient>
        <linearGradient x1="50%" y1="-13.9091141%" x2="50%" y2="50%" id="linearGradient-2">
            <stop stop-color="#FFFFFF" offset="0%"></stop>
            <stop stop-color="#F4F7FB" offset="100%"></stop>
        </linearGradient>
    </defs>
    <g id="Front" stroke="none" stroke-width="1" fill="none" fill-rule="evenodd">
        <g id="Desktop-Frontpage" transform="translate(-604.000000, -4726.000000)">
            <g id="Group-16" transform="translate(604.000000, 4726.000000)">
                <path d="M331.370773,369.633762 C331.370773,439.59891 249.367188,505.187004 264.603183,602.055697 C279.839178,698.92439 399.084495,804.328137 516.584361,776.205868 C634.084226,748.083598 822.352354,619.340876 822.352354,452.10876 C822.352354,284.876644 707.221897,105.011212 563.564732,32.9152877 C419.907566,-39.1806367 232.304178,10.3449859 254.856387,150.311126 C277.408597,290.277266 331.370773,299.668615 331.370773,369.633762 Z" id="Path-11" fill="url(#linearGradient-1)"></path>
                <path d="M232.510292,418.851563 C219.748574,491.941406 178.135292,556.199219 137.529824,556.199219 C96.924355,556.199219 -6.85689501,556.09375 0.357948737,453.40625 C7.57279249,350.71875 68.7251362,296 125.869667,296 C183.014199,296 245.272011,345.761719 232.510292,418.851563 Z" id="Path-12" fill="url(#linearGradient-2)"></path>
            </g>
        </g>
    </g>
</svg>